module gitlab.com/blankspace9/biocad-parser

go 1.21.3

require (
	github.com/google/uuid v1.4.0
	github.com/johnfercher/maroto v1.0.0
	github.com/joho/godotenv v1.5.1
	github.com/kelseyhightower/envconfig v1.4.0
	github.com/lib/pq v1.10.9
	github.com/sirupsen/logrus v1.9.3
	github.com/spf13/viper v1.17.0
	golang.org/x/text v0.14.0
)

require (
	github.com/boombuler/barcode v1.0.1 // indirect
	github.com/fsnotify/fsnotify v1.6.0 // indirect
	github.com/gorilla/mux v1.8.1 // indirect
	github.com/hashicorp/hcl v1.0.0 // indirect
	github.com/jung-kurt/gofpdf v1.16.2 // indirect
	github.com/magiconair/properties v1.8.7 // indirect
	github.com/mitchellh/mapstructure v1.5.0 // indirect
	github.com/pelletier/go-toml/v2 v2.1.0 // indirect
	github.com/ruudk/golang-pdf417 v0.0.0-20201230142125-a7e3863a1245 // indirect
	github.com/sagikazarmark/locafero v0.3.0 // indirect
	github.com/sagikazarmark/slog-shim v0.1.0 // indirect
	github.com/sourcegraph/conc v0.3.0 // indirect
	github.com/spf13/afero v1.10.0 // indirect
	github.com/spf13/cast v1.5.1 // indirect
	github.com/spf13/pflag v1.0.5 // indirect
	github.com/subosito/gotenv v1.6.0 // indirect
	go.uber.org/atomic v1.9.0 // indirect
	go.uber.org/multierr v1.9.0 // indirect
	golang.org/x/exp v0.0.0-20230905200255-921286631fa9 // indirect
	golang.org/x/sys v0.13.0 // indirect
	gopkg.in/ini.v1 v1.67.0 // indirect
	gopkg.in/yaml.v3 v3.0.1 // indirect
)
